<?xml version="1.0" encoding="UTF-8"?>
<svg width="300" height="135" version="1.1" viewBox="0 0 300 135" xmlns="http://www.w3.org/2000/svg">
 <g>
  <g transform="translate(0 -2169.5)" fill="none" stroke="#cfcfcf" stroke-dasharray="1.70282, 1.70282" stroke-width="1.7028">
   <path d="m200.86 2297.1-80.738-126.8"/>
   <path d="m148.58 2287.9 91.851-95.534"/>
   <path d="m79.483 2277.2 91.851-95.534"/>
   <path d="m54.316 2219.7 193.81 62.164"/>
   <path d="m77.695 2188.1 193.81 62.164"/>
  </g>
  <rect transform="matrix(.69601 -.71803 -.95272 -.30385 0 0)" x="-35.379" y="-211.02" width="41.625" height="64.103" rx="5.825" ry="3.8355" color="#000000" fill="#00f" fill-opacity=".99666" fill-rule="evenodd" stroke="#000" stroke-width="1pt"/>
  <text x="78.675034" y="126.24259" fill="#000000" font-family="'Liberation Sans',Arial,sans-serif" font-size="6px" stroke-width="1px" style="font-variant-caps:normal;font-variant-east-asian:normal;font-variant-ligatures:normal;font-variant-numeric:normal;line-height:1.25" xml:space="preserve"><tspan x="78.675034" y="126.24259">强制沿矩形的边或对角线方向缩放 </tspan><tspan x="78.675034" y="133.7426">调整手柄时按Ctrl键</tspan></text>
 </g>
</svg>
