<?xml version="1.0" encoding="UTF-8"?>
<svg width="300" height="47" version="1.1" viewBox="0 0 300 47" xmlns="http://www.w3.org/2000/svg">
 <text x="225" y="6" fill="#000000" font-family="'Liberation Sans',Arial,sans-serif" stroke-width="1pt" text-align="center" text-anchor="middle" style="line-height:0%" xml:space="preserve"><tspan x="225" y="6" font-size="6px" text-align="center" text-anchor="middle" style="line-height:1.1">Еліптичні округлені кути</tspan></text>
 <text x="75" y="6" fill="#000000" font-family="'Liberation Sans',Arial,sans-serif" stroke-width="1pt" text-align="center" text-anchor="middle" style="line-height:0%" xml:space="preserve"><tspan x="75" y="6" font-size="6px" text-align="center" text-anchor="middle" style="line-height:1.1">Круглі округлені кути</tspan></text>
 <rect x="8.8697" y="11.833" width="56.849" height="33.94" ry="7.1429" fill="#00f" fill-opacity=".75" fill-rule="evenodd" stroke="#000" stroke-width="1pt"/>
 <rect x="83.596" y="11.833" width="56.849" height="33.94" ry="16.97" fill="#00f" fill-opacity=".75" fill-rule="evenodd" stroke="#000" stroke-width="1pt"/>
 <rect x="159.72" y="11.833" width="56.849" height="33.94" rx="6.6372" ry="16.97" fill="#00f" fill-opacity=".75" fill-rule="evenodd" stroke="#000" stroke-width="1pt"/>
 <rect x="234.28" y="11.833" width="56.849" height="33.94" rx="24.046" ry="5.9394" fill="#00f" fill-opacity=".75" fill-rule="evenodd" stroke="#000" stroke-width="1pt"/>
</svg>
