<?xml version="1.0" encoding="UTF-8"?>
<svg width="299.96" height="92.083" version="1.1" viewBox="0 0 299.96 92.083" xmlns="http://www.w3.org/2000/svg">
 <g transform="translate(10.004 .020374)">
  <path d="m20.29 2.0037c10.119 0 18.266 8.1464 18.266 18.266 0 10.119-8.1464 18.266-18.266 18.266s-18.266-8.1464-18.266-18.266c0-10.119 8.1464-18.266 18.266-18.266z" fill="#0cf" stroke="#2e75ac" stroke-linejoin="round" stroke-width="4.0482"/>
  <path d="m245.44 2.0037c10.119 0 18.266 8.1464 18.266 18.266 0 10.119-8.1464 18.266-18.266 18.266s-18.266-8.1464-18.266-18.266c0-10.119 8.1464-18.266 18.266-18.266z" fill="#0cf" stroke="#2e75ac" stroke-linejoin="round" stroke-width="4.0482"/>
  <g transform="matrix(.52187 0 0 .52187 -12.141 -26.068)" fill="#0cf" stroke="#2e75ac" stroke-linejoin="round" stroke-width="7.757">
   <path d="m123.78 53.791c19.39 0 35 15.61 35 35 0 19.39-15.61 35-35 35s-35-15.61-35-35c0-19.39 15.61-35 35-35"/>
   <path d="m185.41 53.791c19.39 0 35 15.61 35 35 0 19.39-15.61 35-35 35s-35-15.61-35-35c0-19.39 15.61-35 35-35"/>
   <path d="m247.04 53.791c19.39 0 35 15.61 35 35 0 19.39-15.61 35-35 35s-35-15.61-35-35c0-19.39 15.61-35 35-35"/>
   <path d="m308.67 53.791c19.39 0 35 15.61 35 35 0 19.39-15.61 35-35 35s-35-15.61-35-35c0-19.39 15.61-35 35-35"/>
   <path d="m370.31 53.791c19.39 0 35 15.61 35 35 0 19.39-15.61 35-35 35s-35-15.61-35-35c0-19.39 15.61-35 35-35"/>
   <path d="m431.94 53.791c19.39 0 35 15.61 35 35 0 19.39-15.61 35-35 35s-35-15.61-35-35c0-19.39 15.61-35 35-35"/>
  </g>
  <text x="-0.59277618" y="49.345509" fill="#000000" font-family="'Liberation Sans', Arial, sans-serif" font-size="6px" stroke-width="1px" style="font-variant-caps:normal;font-variant-east-asian:normal;font-variant-ligatures:normal;font-variant-numeric:normal;line-height:1.25" xml:space="preserve"><tspan x="-0.59277618" y="49.345509">Exponent: 1.0</tspan><tspan x="-0.59277618" y="56.941441">Крокаў інтэрпаляцыі: 6</tspan><tspan x="-0.59277618" y="64.537376">Interpolation Method: Split paths into segments of equal lengths</tspan><tspan x="-0.59277618" y="72.133308">Duplicate Endpaths: unchecked   </tspan><tspan x="-0.59277618" y="79.72924">Interpolate Style: unchecked  </tspan><tspan x="-0.59277618" y="87.325172">Use Z-order: unchecked</tspan>           </text>
 </g>
</svg>
