<?xml version="1.0" encoding="UTF-8"?>
<svg width="300" height="104" version="1.1" viewBox="0 0 300 104" xmlns="http://www.w3.org/2000/svg" xmlns:xlink="http://www.w3.org/1999/xlink">
 <!-- this image is translatable, so pretend we'd have some translatable <text> in here -->
 <image x="87.5" width="125" height="103.34" xlink:href="pixelart-dialog.de.png"/>
</svg>
